…
data(Ionosphere)
svm_rbf(cost = tune(), rbf_sigma = tune()) %>% 
  set_mode("classification") %>%
  set_engine("kernlab") %>%
  tune_grid(Class ~ .,
    resamples = rsample::bootstraps(dplyr::select(Ionosphere, -V2), times = 30), 
    control = control_grid(verbose = FALSE))
```
```
# Bootstrap sampling 
# A tibble: 30 x 4
   splits            id          .metrics          .notes          
 * <list>            <chr>       <list>            <list>          
 1 <split [351/124]> Bootstrap01 <tibble [10 × 5]> <tibble [0 × 1]>
 2 <split [351/126]> Bootstrap02 <tibble [10 × 5]> <tibble [0 × 1]>
 3 <split [351/125]> Bootstrap03 <tibble [10 × 5]> <tibble [0 × 1]>
 4 <split [351/135]> Bootstrap04 <tibble [10 × 5]> <tibble [0 × 1]>
 5 <split [351/127]> Bootstrap05 <tibble [10 × 5]> <tibble [0 × 1]>
 6 <split [351/131]> Bootstrap06 <tibble [10 × 5]> <tibble [0 × 1]>
 7 <split [351/141]> Bootstrap07 <tibble [10 × 5]> <tibble [0 × 1]>
 8 <split [351/123]> Bootstrap08 <tibble [10 × 5]> <tibble [0 × 1]>
 9 <split [351/118]> Bootstrap09 <tibble [10 × 5]> <tibble [0 × 1]>
10 <split [351/136]> Bootstrap10 <tibble [10 × 5]> <tibble [0 × 1]>
# … with 20 more rows
```
…
