RStudio AI Blog: Entity embeddings for fun and profit
…
Now we’ll definitely refrain from taking this too seriously, given the modest accuracy on the prediction task that lead to these embedding matrices.4 Certainly when assessing the obtained factorization, performance on the main task has to be taken into account.

But we’d like to point out something else too: In contrast to unsupervised and semi-supervised techniques like PCA or autoencoders, we made use of an extraneous variable (the ethical behavior to be predicted). So any learned relationships are never “absolute”, but always to be seen in relation to the way they were learned. This is why we chose an additional target variable, JobSatisfaction, so we could compare the embeddings learned on two different tasks. We won’t refer the concrete results here as accuracy turned out to be even lower than with EthicsChoice. We do, however, want to stress this inherent difference to representations learned by, e.g., autoencoders.

Now let’s address the second use case.

Embedding for profit (improving accuracy)

Our second task here is about fraud detection. The dataset is contained in the DMwR2 package and is called sales:

data(sales, package = "DMwR2")
sales

# A tibble: 401,146 x 5
   ID    Prod  Quant   Val Insp 
   <fct> <fct> <int> <dbl> <fct>
 1 v1    p1      182  1665 unkn 
 2 v2    p1     3072  8780 unkn 
 3 v3    p1    20393 76990 unkn 
 4 v4    p1      112  1100 unkn 
 5 v3    p1     6164 20260 unkn 
 6 v5    p2      104  1155 unkn 
 7 v6    p2      350  5680 unkn 
 8 v7    p2      200  4010 unkn 
 9 v8    p2      233  2855 unkn 
10 v9    p2      118  1175 unkn 
# ... with 401,136 more rows
…
