…
download.file(
  "https://bmcnoldy.rsmas.miami.edu/tropics/oni/ONI_NINO34_1854-2022.txt",
  destfile = "ONI_NINO34_1854-2022.txt"
)

enso <- read_table("ONI_NINO34_1854-2022.txt", skip = 9) %>%
  mutate(x = yearmonth(as.Date(paste0(YEAR, "-", `MON/MMM`, "-01")))) %>%
  select(x, enso = NINO34_MEAN) %>%
  filter(x >= yearmonth("1950-01"), x <= yearmonth("2022-09")) %>%
  as_tsibble(index = x)

enso
```

    # A tsibble: 873 x 2 [1M]
              x  enso
          <mth> <dbl>
     1 1950 Jan  24.6
     2 1950 Feb  25.1
     3 1950 Mar  25.9
     4 1950 Apr  26.3
     5 1950 May  26.2
     6 1950 Jun  26.5
     7 1950 Jul  26.3
     8 1950 Aug  25.9
     9 1950 Sep  25.7
    10 1950 Oct  25.7
    # … with 863 more rows
…
nao
```

    # A tsibble: 873 x 2 [1M]
              x   nao
          <mth> <dbl>
     1 1950 Jan -0.16
     2 1950 Feb  0.25
     3 1950 Mar -1.44
     4 1950 Apr  1.46
     5 1950 May  1.34
     6 1950 Jun -3.94
     7 1950 Jul -2.75
     8 1950 Aug -0.08
     9 1950 Sep  0.19
    10 1950 Oct  0.19
    # … with 863 more rows
…
ao
```

    # A tsibble: 873 x 2 [1M]
              x     ao
          <mth>  <dbl>
     1 1950 Jan -0.06 
     2 1950 Feb  0.627
     3 1950 Mar -0.008
     4 1950 Apr  0.555
     5 1950 May  0.072
     6 1950 Jun  0.539
     7 1950 Jul -0.802
     8 1950 Aug -0.851
     9 1950 Sep  0.358
    10 1950 Oct -0.379
    # … with 863 more rows
…
