RStudio AI Blog: Collaborative filtering with embeddings
…
ratings_grouped <-
  ratings_with_pc12 %>%
  group_by(title) %>%
  summarize(
    PC1 = max(PC1),
    PC2 = max(PC2),
    rating = mean(rating),
    genres = max(genres),
    num_ratings = n()
  )

ratings_grouped %>% filter(num_ratings > 20) %>% arrange(PC1) %>% print(n = 10)

# A tibble: 1,247 x 6
   title                                   PC1      PC2 rating genres                   num_ratings
   <chr>                                 <dbl>    <dbl>  <dbl> <chr>                          <int>
 1 Starman (1984)                       -1.15  -0.400     3.45 Adventure|Drama|Romanceâ€¦          22
 2 Bulworth (1998)                      -0.820  0.218     3.29 Comedy|Drama|Romance              31
 3 Cable Guy, The (1996)                -0.801 -0.00333   2.55 Comedy|Thriller                   59
 4 Species (1995)                       -0.772 -0.126     2.81 Horror|Sci-Fi                     55
 5 Save the Last Dance (2001)           -0.765  0.0302    3.36 Drama|Romance                     21
 6 Spanish Prisoner, The (1997)         -0.760  0.435     3.91 Crime|Drama|Mystery|Thrâ€¦          23
 7 Sgt. Bilko (1996)                    -0.757  0.249     2.76 Comedy                            29
 8 Naked Gun 2 1/2: The Smell of Fear,â€¦ -0.749  0.140     3.44 Comedy                            27
 9 Swordfish (2001)                     -0.694  0.328     2.92 Action|Crime|Drama                33
10 Addams Family Values (1993)          -0.693  0.251     3.15 Children|Comedy|Fantasy           73
# ... with 1,237 more rows

And here, inversely, are those that scored highest:

ratings_grouped %>% filter(num_ratings > 20) %>% arrange(desc(PC1)) %>% print(n = 10)

 A tibble: 1,247 x 6
   title                                PC1        PC2 rating genres                    num_ratings
   <chr>                              <dbl>      <dbl>  <dbl> <chr>                           <int>
 1 Graduate, The (1967)                1.41  0.0432      4.12 Comedy|Drama|Romance               89
 2 Vertigo (1958)                      1.38 -0.0000246   4.22 Drama|Mystery|Romance|Thâ€¦          69
 3 Breakfast at Tiffany's (1961)       1.28  0.278       3.59 Drama|Romance                      44
 4 Treasure of the Sierra Madre, Theâ€¦  1.28 -0.496       4.3  Action|Adventure|Drama|Wâ€¦          30
 5 Boot, Das (Boat, The) (1981)        1.26  0.238       4.17 Action|Drama|War                   51
 6 Flintstones, The (1994)             1.18  0.762       2.21 Children|Comedy|Fantasy            39
 7 Rock, The (1996)                    1.17 -0.269       3.74 Action|Adventure|Thriller         135
 8 In the Heat of the Night (1967)     1.15 -0.110       3.91 Drama|Mystery                      22
 9 Quiz Show (1994)                    1.14 -0.166       3.75 Drama                              90
10 Striptease (1996)                   1.14 -0.681       2.46 Comedy|Crime                       39
# ... with 1,237 more rows
…
