RStudio AI Blog: Deep Learning With Keras To Predict Customer Churn
…
The yardstick package has a collection of handy functions for measuring performance of machine learning models. Well overview some metrics we can use to understand the performance of our model.

First, lets get the data formatted for yardstick. We create a data frame with the truth (actual values as factors), estimate (predicted values as factors), and the class probability (probability of yes as numeric). We use the fct_recode() function from the forcats package to assist with recoding as Yes/No values.

# Format test data and predictions for yardstick metrics
estimates_keras_tbl <- tibble(
  truth      = as.factor(y_test_vec) %>% fct_recode(yes = "1", no = "0"),
  estimate   = as.factor(yhat_keras_class_vec) %>% fct_recode(yes = "1", no = "0"),
  class_prob = yhat_keras_prob_vec
)

estimates_keras_tbl

# A tibble: 1,406 x 3
    truth estimate  class_prob
   <fctr>   <fctr>       <dbl>
 1    yes       no 0.328355074
 2    yes      yes 0.633630514
 3     no       no 0.004589651
 4     no       no 0.007402068
 5     no       no 0.049968336
 6     no       no 0.116824441
 7     no      yes 0.775479317
 8     no       no 0.492996633
 9     no       no 0.011550998
10     no       no 0.004276015
# ... with 1,396 more rows
…
Now we can create our predict_model() function, which wraps keras::predict_proba(). The trick here is to realize that its inputs must be x a model, newdata a dataframe object (this is important), and type which is not used but can be use to switch the output type. The output is also a little tricky because it must be in the format of probabilities by classification (this is important; shown next).

# Setup lime::predict_model() function for keras
predict_model.keras.models.Sequential <- function(x, newdata, type, ...) {
  pred <- predict_proba(object = x, x = as.matrix(newdata))
  data.frame(Yes = pred, No = 1 - pred)
}

Run this next script to show you what the output looks like and to test our predict_model() function. See how its the probabilities by classification. It must be in this form for model_type = "classification".

# Test our predict_model() function
predict_model(x = model_keras, newdata = x_test_tbl, type = 'raw') %>%
  tibble::as_tibble()

# A tibble: 1,406 x 2
           Yes        No
         <dbl>     <dbl>
 1 0.328355074 0.6716449
 2 0.633630514 0.3663695
 3 0.004589651 0.9954103
 4 0.007402068 0.9925979
 5 0.049968336 0.9500317
 6 0.116824441 0.8831756
 7 0.775479317 0.2245207
 8 0.492996633 0.5070034
 9 0.011550998 0.9884490
10 0.004276015 0.9957240
# ... with 1,396 more rows
…
One thing we need to be careful with the LIME visualization is that we are only doing a sample of the data, in our case the first 10 test observations. Therefore, we are gaining a very localized understanding of how the ANN works. However, we also want to know on from a global perspective what drives feature importance.

We can perform a correlation analysis on the training set as well to help glean what features correlate globally to Churn. Well use the corrr package, which performs tidy correlations with the function correlate(). We can get the correlations as follows.

# Feature correlations to Churn
corrr_analysis <- x_train_tbl %>%
  mutate(Churn = y_train_vec) %>%
  correlate() %>%
  focus(Churn) %>%
  rename(feature = rowname) %>%
  arrange(abs(Churn)) %>%
  mutate(feature = as_factor(feature)) 
corrr_analysis

# A tibble: 35 x 2
                          feature        Churn
                           <fctr>        <dbl>
 1                    gender_Male -0.006690899
 2                    tenure_bin3 -0.009557165
 3 MultipleLines_No.phone.service -0.016950072
 4               PhoneService_Yes  0.016950072
 5              MultipleLines_Yes  0.032103354
 6                StreamingTV_Yes  0.066192594
 7            StreamingMovies_Yes  0.067643871
 8           DeviceProtection_Yes -0.073301197
 9                    tenure_bin4 -0.073371838
10     PaymentMethod_Mailed.check -0.080451164
# ... with 25 more rows
…
