RStudio AI Blog: Predicting Sunspot Frequency with Keras
…
Preprocessing with recipes

The LSTM algorithm will usually work better if the input data has been centered and scaled. We can conveniently accomplish this using the recipes package. In addition to step_center and step_scale, we’re using step_sqrt to reduce variance and remov outliers. The actual transformations are executed when we bake the data according to the recipe:

rec_obj <- recipe(value ~ ., df) %>%
    step_sqrt(value) %>%
    step_center(value) %>%
    step_scale(value) %>%
    prep()

df_processed_tbl <- bake(rec_obj, df)

df_processed_tbl

# A tibble: 1,800 x 3
   index      value key     
   <date>     <dbl> <fct>   
 1 1849-06-01 0.714 training
 2 1849-07-01 0.660 training
 3 1849-08-01 0.473 training
 4 1849-09-01 0.922 training
 5 1849-10-01 0.544 training
 6 1849-11-01 1.01  training
 7 1849-12-01 0.974 training
 8 1850-01-01 0.660 training
 9 1850-02-01 0.852 training
10 1850-03-01 0.739 training
# ... with 1,790 more rows
…
