RStudio AI Blog: Experimenting with autoregressive flows in TensorFlow Probability
…
# we don't know if we'll end up with the same columns as the authors did,
# but we try (at least we do end up with 8 columns)
df <- df[,-(1:3)]
hc <- findCorrelation(cor(df), cutoff = 0.985)
df2 <- df[,-c(hc)]

# scale
df2 <- scale(df2)
df2

# A tibble: 4,208,261 x 8
      X4     X5     X8    X9    X13    X16    X17   X18
   <dbl>  <dbl>  <dbl> <dbl>  <dbl>  <dbl>  <dbl> <dbl>
 1 -50.8  -1.95  -4.07 -28.7 50670. 24544. 21421. 7651.
 2 -49.4  -5.53   3.58 -34.6 50047. 24137. 20930. 7499.
 3 -40.0 -16.1   -7.16 -42.1 49299. 23629. 20505. 7370.
 4 -47.1 -10.6  -11.2  -37.9 48907  23102. 20101. 7285.
 5 -33.6 -20.8    3.42 -34.2 48331. 22690. 19694. 7157.
 6 -48.6 -11.5    0.33 -29.0 47609  22159. 19333. 7068.
 7 -48.3  -9.11  -7.97 -30.3 47047. 21932. 19028. 6976.
 8 -47.1  -4.56  -2.28 -24.4 46758. 21504. 18780. 6900.
 9 -42.3  -2.77  -2.12 -27.6 46197. 21125. 18439. 6827.
10 -44.6   3.58  -0.65 -35.5 45652. 20836. 18209. 6790.
#  with 4,208,251 more rows
…
