…
Now let's address the second use case.

## Embedding for profit (improving accuracy)


Our second task here is about fraud detection. The dataset is contained in the `DMwR2` package and is called `sales`:

```{r}
data(sales, package = "DMwR2")
sales
```

```
# A tibble: 401,146 x 5
   ID    Prod  Quant   Val Insp 
   <fct> <fct> <int> <dbl> <fct>
 1 v1    p1      182  1665 unkn 
 2 v2    p1     3072  8780 unkn 
 3 v3    p1    20393 76990 unkn 
 4 v4    p1      112  1100 unkn 
 5 v3    p1     6164 20260 unkn 
 6 v5    p2      104  1155 unkn 
 7 v6    p2      350  5680 unkn 
 8 v7    p2      200  4010 unkn 
 9 v8    p2      233  2855 unkn 
10 v9    p2      118  1175 unkn 
# ... with 401,136 more rows
```
…
