…
### Comprehensive summary (a.k.a. "precis")

```{r}
is_accepted <- is_accepted %>% as.integer() %>% mean()
step_size <- purrr::map(step_size, mean)

ess <- apply(ess, 2, mean)

summary_with_diag <- summary %>% add_column(ess = ess, rhat = rhat)
summary_with_diag
```

```
# A tibble: 50 x 7
   key    mean    sd  lower upper   ess  rhat
   <chr> <dbl> <dbl>  <dbl> <dbl> <dbl> <dbl>
 1 a_bar  1.35 0.266  0.792  1.87 405.   1.00
 2 sigma  1.64 0.218  1.23   2.05  83.6  1.00
 3 a_1    2.14 0.887  0.451  3.92  33.5  1.04
 4 a_2    3.16 1.13   1.09   5.48  23.7  1.03
 5 a_3    1.01 0.698 -0.333  2.31  65.2  1.02
 6 a_4    3.02 1.04   1.06   5.05  31.1  1.03
 7 a_5    2.11 0.843  0.625  3.88  49.0  1.05
 8 a_6    2.06 0.904  0.496  3.87  39.8  1.03
 9 a_7    3.20 1.27   1.11   6.12  14.2  1.02
10 a_8    2.21 0.894  0.623  4.18  44.7  1.04
# ... with 40 more rows
```
…
