Training ImageNet with R
…
train_path <- "/localssd/imagenet/ILSVRC/Data/CLS-LOC/train/"
for (path in dir(train_path, full.names = TRUE)) {
  dir(path, full.names = TRUE) %>%
    pin(name = basename(path), board = "imagenet", zip = TRUE)
}

We can now retrieve a subset of ImageNet quite efficiently. If you are motivated to do so and have about one gigabyte to spare, feel free to follow along executing this code. Notice that ImageNet contains – lots of JPEG images for each WorNet category.

board_register_datatxt("https://storage.googleapis.com/r-imagenet/", "imagenet")

categories <- pin_get("categories", board = "imagenet")
pin_get(categories$id[1], board = "imagenet", extract = TRUE) %>%
  tibble::as_tibble()

# A tibble: 1,300 x 1
   value                                                           
   <chr>                                                           
 1 /home/rstudio/.cache/pins/storage/n01440764/n01440764_10026.JPEG
 2 /home/rstudio/.cache/pins/storage/n01440764/n01440764_10027.JPEG
 3 /home/rstudio/.cache/pins/storage/n01440764/n01440764_10029.JPEG
 4 /home/rstudio/.cache/pins/storage/n01440764/n01440764_10040.JPEG
 5 /home/rstudio/.cache/pins/storage/n01440764/n01440764_10042.JPEG
 6 /home/rstudio/.cache/pins/storage/n01440764/n01440764_10043.JPEG
 7 /home/rstudio/.cache/pins/storage/n01440764/n01440764_10048.JPEG
 8 /home/rstudio/.cache/pins/storage/n01440764/n01440764_10066.JPEG
 9 /home/rstudio/.cache/pins/storage/n01440764/n01440764_10074.JPEG
10 /home/rstudio/.cache/pins/storage/n01440764/n01440764_1009.JPEG 
# … with 1,290 more rows
…
