RStudio AI Blog: Variational convnets with tfprobability
…
Putting it all together, we have

pred_data <- one_shot_means %>%
  inner_join(one_shot_sds, by = c("obs", "class")) %>% 
  inner_join(mc_sds, by = c("obs", "class")) %>% 
  right_join(one_hot_to_label, by = "class") %>% 
  arrange(obs)

pred_data

# A tibble: 414 x 6
     obs class       mean      sd    mc_sd label       
   <int> <chr>      <dbl>   <dbl>    <dbl> <fct>       
 1     1 V1    0.945      0.227   0.0743   STAND_TO_SIT
 2     1 V2    0.0534     0.225   0.0675   SIT_TO_STAND
 3     1 V3    0.00114    0.0338  0.0346   SIT_TO_LIE  
 4     1 V4    0.00000238 0.00154 0.000336 LIE_TO_SIT  
 5     1 V5    0.0000132  0.00363 0.00164  STAND_TO_LIE
 6     1 V6    0.0000305  0.00553 0.00398  LIE_TO_STAND
 7     2 V1    0.993      0.0813  0.149    STAND_TO_SIT
 8     2 V2    0.00153    0.0390  0.102    SIT_TO_STAND
 9     2 V3    0.00476    0.0688  0.108    SIT_TO_LIE  
10     2 V4    0.00000172 0.00131 0.000613 LIE_TO_SIT  
# … with 404 more rows
…
eval_table %>% print(n = 20)

# A tibble: 69 x 7
     obs maxprob maxprob_sd maxprob_mc_sd predicted    truth        correct
   <int>   <dbl>      <dbl>         <dbl> <fct>        <fct>        <lgl>  
 1     1   0.945     0.227         0.0743 STAND_TO_SIT STAND_TO_SIT TRUE   
 2     2   0.993     0.0813        0.149  STAND_TO_SIT STAND_TO_SIT TRUE   
 3     3   0.733     0.443         0.131  STAND_TO_SIT STAND_TO_SIT TRUE   
 4     4   0.796     0.403         0.138  STAND_TO_SIT STAND_TO_SIT TRUE   
 5     5   0.843     0.364         0.358  SIT_TO_STAND STAND_TO_SIT FALSE  
 6     6   0.816     0.387         0.176  SIT_TO_STAND STAND_TO_SIT FALSE  
 7     7   0.600     0.490         0.370  STAND_TO_SIT STAND_TO_SIT TRUE   
 8     8   0.941     0.236         0.0851 STAND_TO_SIT STAND_TO_SIT TRUE   
 9     9   0.853     0.355         0.274  SIT_TO_STAND STAND_TO_SIT FALSE  
10    10   0.961     0.195         0.195  STAND_TO_SIT STAND_TO_SIT TRUE   
11    11   0.918     0.275         0.168  STAND_TO_SIT STAND_TO_SIT TRUE   
12    12   0.957     0.203         0.150  STAND_TO_SIT STAND_TO_SIT TRUE   
13    13   0.987     0.114         0.188  SIT_TO_STAND SIT_TO_STAND TRUE   
14    14   0.974     0.160         0.248  SIT_TO_STAND SIT_TO_STAND TRUE   
15    15   0.996     0.0657        0.0534 SIT_TO_STAND SIT_TO_STAND TRUE   
16    16   0.886     0.318         0.0868 SIT_TO_STAND SIT_TO_STAND TRUE   
17    17   0.773     0.419         0.173  SIT_TO_STAND SIT_TO_STAND TRUE   
18    18   0.998     0.0444        0.222  SIT_TO_STAND SIT_TO_STAND TRUE   
19    19   0.885     0.319         0.161  SIT_TO_STAND SIT_TO_STAND TRUE   
20    20   0.930     0.255         0.271  SIT_TO_STAND SIT_TO_STAND TRUE   
# … with 49 more rows
…
